lat	lon	title	description	icon	iconSize	iconOffset
-12.099675	-77.016793	256371642	20190923 14250800 10.6	gren.png	20,20	-8,-8
-12.088658	-77.014775	256371642	20190927 08432900 1.8	gren.png	20,20	-8,-8
-12.083776	-76.971647	256491952	20190928 22482400 20.2	gren.png	20,20	-8,-8
-11.987740	-76.998865	267477175	20191018 18570900 9.7	gren.png	20,20	-8,-8
-11.971060	-76.992419	267477175	20191022 18073100 3.4	gren.png	20,20	-8,-8
-11.973465	-77.107212	257550194	20191022 14493000 14.3	gren.png	20,20	-8,-8
-11.970734	-76.992619	267477175	20191022 18072200 37	gren.png	20,20	-8,-8
-11.985912	-76.998641	267477175	20191023 06533500 iconSize	gren.png	20,20	-8,-8
-11.986433	-76.999539	267477175	20191023 06533500 35.4	gren.png	20,20	-8,-8
-11.982241	-76.999515	267477175	20191024 06581100 46.8	gren.png	20,20	-8,-8
-11.982813	-77.000284	267477175	20191024 06581100 9.5	gren.png	20,20	-8,-8
-5.244113	-80.879170	256371931	20191026 10465800 12	gren.png	20,20	-8,-8
-5.292557	-80.794668	256371931	20191026 18380100 32.8	gren.png	20,20	-8,-8
-5.293017	-80.793821	256371931	20191026 18381800 11	gren.png	20,20	-8,-8
-11.987270	-76.999160	267477175	20191026 23535400 35.1	gren.png	20,20	-8,-8
-11.987270	-76.999160	267477175	20191026 23535500 35.1	gren.png	20,20	-8,-8
-7.719271	-77.659294	256398108	20191028 14371300 4	gren.png	20,20	-8,-8
-12.173260	-77.032749	001035417	20191030 23124500 15.9	gren.png	20,20	-8,-8
-12.088928	-77.005421	250692001	20191031 20050600 1.6	gren.png	20,20	-8,-8
-11.993697	-77.003939	256380437	20191031 19263700 3.1	gren.png	20,20	-8,-8
-11.993654	-77.003409	256380437	20191031 19263700 11.7	gren.png	20,20	-8,-8
-13.354593	-76.220989	256371972	20191101 08234100 110	gren.png	20,20	-8,-8
-13.160479	-76.370061	256371972	20191101 08070100 105.1	gren.png	20,20	-8,-8
-13.162917	-76.366742	256371972	20191101 08070800 114.2	gren.png	20,20	-8,-8
-11.971110	-76.992391	257394072	20191102 18205500 0.1	gren.png	20,20	-8,-8
-8.449878	-78.734655	256492828	20191102 19484300 18.3	gren.png	20,20	-8,-8
-9.796928	-78.185854	267565722	20191103 17164400 96	gren.png	20,20	-8,-8
-9.797255	-78.193820	267565722	20191103 17164500 118.7	gren.png	20,20	-8,-8
-12.006176	-77.056602	253880686	20191103 17172000 17.8	gren.png	20,20	-8,-8
-12.006176	-77.056602	253880686	20191103 17172100 17.8	gren.png	20,20	-8,-8
-11.785750	-75.576719	256398074	20191103 07011900 80.4	gren.png	20,20	-8,-8
-11.792336	-75.587323	256398074	20191103 07012000 18.9	gren.png	20,20	-8,-8
-4.883981	-80.433330	256492224	20191104 15110400 42.5	gren.png	20,20	-8,-8
-13.327217	-76.240699	257594341	20191105 11310800 96.6	gren.png	20,20	-8,-8
-9.919831	-76.242139	253780928	20191105 13511100 5	gren.png	20,20	-8,-8
-9.919831	-76.242139	253780928	20191105 13511300 5	gren.png	20,20	-8,-8
-12.115436	-77.012376	001009792	20191106 16363800 9.2	gren.png	20,20	-8,-8
-4.917159	-80.336979	256492224	20191106 16304900 52.3	gren.png	20,20	-8,-8
-4.915811	-80.336536	256492224	20191106 16305000 22	gren.png	20,20	-8,-8
-12.116785	-77.049590	257410381	20191107 17375500 23.4	gren.png	20,20	-8,-8
-12.117523	-77.048777	257410381	20191107 17380100 35.2	gren.png	20,20	-8,-8
-12.025464	-77.076908	255509457	20191108 20055300 24	gren.png	20,20	-8,-8
-12.025488	-77.077419	255509457	20191108 20060200 1.9	gren.png	20,20	-8,-8
-12.050250	-77.079185	257544171	20191108 01325200 61	gren.png	20,20	-8,-8
-12.049842	-77.076734	257544171	20191108 01325200 63.6	gren.png	20,20	-8,-8
-14.114628	-75.670413	253882807	20191109 21020800 15.6	gren.png	20,20	-8,-8
-14.114999	-75.670925	253882807	20191109 21020800 3.9	gren.png	20,20	-8,-8
-12.072950	-77.041736	257544825	20191109 11510100 19.9	gren.png	20,20	-8,-8
-12.073629	-77.041955	257544825	20191109 11511100 20.8	gren.png	20,20	-8,-8
-16.374909	-71.519690	257384800	20191109 11192400 2.6	gren.png	20,20	-8,-8
-11.904703	-76.524649	257594341	20191109 16515300 26.1	gren.png	20,20	-8,-8
-11.905818	-76.523856	257594341	20191109 16515400 24.5	gren.png	20,20	-8,-8
-3.884378	-73.351397	001035441	20191110 13581800 23.2	gren.png	20,20	-8,-8
-3.879263	-73.346022	001035441	20191110 13581800 30.3	gren.png	20,20	-8,-8
-3.882912	-73.350030	001035441	20191110 13570200 62.2	gren.png	20,20	-8,-8
-3.883962	-73.351170	001035441	20191110 13570300 42.3	gren.png	20,20	-8,-8
-9.919931	-76.242033	267476862	20191111 23103000 4.9	gren.png	20,20	-8,-8
-9.919931	-76.242033	267476862	20191111 23103000 4.9	gren.png	20,20	-8,-8
-12.113018	-77.051307	001012846	20191111 09254500 6.8	gren.png	20,20	-8,-8
-9.919931	-76.242033	267476862	20191111 22021800 4.9	gren.png	20,20	-8,-8
-4.904945	-80.813681	255510455	20191111 13165200 46.6	gren.png	20,20	-8,-8
-4.904678	-80.814695	255510455	20191111 13165500 16.3	gren.png	20,20	-8,-8
-9.919931	-76.242033	267476862	20191111 20193500 4.9	gren.png	20,20	-8,-8
-9.919931	-76.242033	267476862	20191111 22173700 4.9	gren.png	20,20	-8,-8
-9.919931	-76.242033	267476862	20191111 22173900 4.9	gren.png	20,20	-8,-8
-9.919931	-76.242033	267476862	20191111 22174000 4.9	gren.png	20,20	-8,-8
-9.919931	-76.242033	267476862	20191111 22174200 4.9	gren.png	20,20	-8,-8
-9.919931	-76.242033	267476862	20191111 22174500 4.9	gren.png	20,20	-8,-8
-9.919931	-76.242033	267476862	20191111 22174600 4.9	gren.png	20,20	-8,-8
-9.919931	-76.242033	267476862	20191111 22174600 4.9	gren.png	20,20	-8,-8
-9.919931	-76.242033	267476862	20191111 22174700 4.9	gren.png	20,20	-8,-8
-5.154464	-80.487273	257385823	20191111 16324100 68.1	gren.png	20,20	-8,-8
-12.866041	-74.836644	256398074	20191111 19053600 20	gren.png	20,20	-8,-8
-12.110145	-76.982254	001012424	20191112 12480400 7.1	gren.png	20,20	-8,-8
-12.110145	-76.982254	001012424	20191112 12480700 7.1	gren.png	20,20	-8,-8
-9.919931	-76.242033	267476862	20191112 14521700 4.9	gren.png	20,20	-8,-8
-9.919931	-76.242033	267476862	20191112 14521700 4.9	gren.png	20,20	-8,-8
-9.919931	-76.242033	267476862	20191112 15451700 4.9	gren.png	20,20	-8,-8
-9.919931	-76.242033	267476862	20191112 00060300 4.9	gren.png	20,20	-8,-8
-9.919931	-76.242033	267476862	20191112 00060300 4.9	gren.png	20,20	-8,-8
-11.989940	-77.015092	267477175	20191112 07004400 13.8	gren.png	20,20	-8,-8
-11.990416	-77.015347	267477175	20191112 07005400 12.7	gren.png	20,20	-8,-8
-9.919931	-76.242033	267476862	20191112 14580500 4.9	gren.png	20,20	-8,-8
-9.919931	-76.242033	267476862	20191112 14580600 4.9	gren.png	20,20	-8,-8
-9.919931	-76.242033	267476862	20191112 06002600 4.9	gren.png	20,20	-8,-8
-4.988515	-80.403378	256376021	20191112 05550600 13.2	gren.png	20,20	-8,-8
-9.919931	-76.242033	267476862	20191112 16220100 4.9	gren.png	20,20	-8,-8
-9.919931	-76.242033	267476862	20191112 16220100 4.9	gren.png	20,20	-8,-8
-9.919931	-76.242033	267476862	20191112 16220300 4.9	gren.png	20,20	-8,-8
-9.919931	-76.242033	267476862	20191112 16220300 4.9	gren.png	20,20	-8,-8
-9.919931	-76.242033	267476862	20191112 16220300 4.9	gren.png	20,20	-8,-8
-9.919931	-76.242033	267476862	20191112 16220300 4.9	gren.png	20,20	-8,-8
-9.919931	-76.242033	267476862	20191112 15524500 4.9	gren.png	20,20	-8,-8
-9.919931	-76.242033	267476862	20191112 15524600 4.9	gren.png	20,20	-8,-8
-4.705878	-79.840934	256376021	20191112 09445400 23.6	gren.png	20,20	-8,-8
-4.705290	-79.839387	256376021	20191112 09445400 23.9	gren.png	20,20	-8,-8
-9.919931	-76.242033	267476862	20191112 02331600 4.9	gren.png	20,20	-8,-8
-9.919931	-76.242033	267476862	20191112 02331900 4.9	gren.png	20,20	-8,-8
-9.919931	-76.242033	267476862	20191112 02332100 4.9	gren.png	20,20	-8,-8
-9.919931	-76.242033	267476862	20191112 02332200 4.9	gren.png	20,20	-8,-8
-9.919931	-76.242033	267476862	20191112 12300900 4.9	gren.png	20,20	-8,-8
-9.919931	-76.242033	267476862	20191112 12300900 4.9	gren.png	20,20	-8,-8
-9.919931	-76.242033	267476862	20191112 14011800 4.9	gren.png	20,20	-8,-8
-9.919931	-76.242033	267476862	20191112 14011900 4.9	gren.png	20,20	-8,-8
-9.919931	-76.242033	267476862	20191112 06003400 4.9	gren.png	20,20	-8,-8
-9.919931	-76.242033	267476862	20191112 06004000 4.9	gren.png	20,20	-8,-8
-9.919931	-76.242033	267476862	20191112 06004100 4.9	gren.png	20,20	-8,-8
-13.318981	-74.351301	256398074	20191113 07233600 8.1	gren.png	20,20	-8,-8
-13.599929	-74.086302	256398074	20191113 13004700 21.4	gren.png	20,20	-8,-8
-13.601467	-74.086094	256398074	20191113 13005000 24.7	gren.png	20,20	-8,-8
-9.919931	-76.242033	267476862	20191113 11001300 4.9	gren.png	20,20	-8,-8
-9.919931	-76.242033	267476862	20191113 11001400 4.9	gren.png	20,20	-8,-8
-7.716092	-77.658599	256398108	20191114 14042600 12.9	gren.png	20,20	-8,-8
-13.409276	-74.201950	256398074	20191115 09222600 56.7	gren.png	20,20	-8,-8
-12.113800	-77.050682	257591644	20191115 09310300 11.4	gren.png	20,20	-8,-8
-12.005572	-77.060310	262100475	20191115 13041600 9.7	gren.png	20,20	-8,-8
-12.005572	-77.060310	262100475	20191115 13042000 9.7	gren.png	20,20	-8,-8
-12.005572	-77.060310	262100475	20191115 13042200 9.7	gren.png	20,20	-8,-8
-12.005572	-77.060310	262100475	20191115 13042600 9.7	gren.png	20,20	-8,-8
-12.005572	-77.060310	262100475	20191115 13043300 9.7	gren.png	20,20	-8,-8
-12.005572	-77.060310	262100475	20191115 13044300 9.7	gren.png	20,20	-8,-8
-12.005572	-77.060310	262100475	20191115 13044800 9.7	gren.png	20,20	-8,-8
-12.005572	-77.060310	262100475	20191115 13045200 9.7	gren.png	20,20	-8,-8
-12.005572	-77.060310	262100475	20191115 13050200 9.7	gren.png	20,20	-8,-8
-12.005572	-77.060310	262100475	20191115 13050400 9.7	gren.png	20,20	-8,-8
-12.005572	-77.060310	262100475	20191115 13050700 9.7	gren.png	20,20	-8,-8
-12.005572	-77.060310	262100475	20191115 13050900 9.7	gren.png	20,20	-8,-8
-12.005572	-77.060310	262100475	20191115 13051100 9.7	gren.png	20,20	-8,-8
-12.005572	-77.060310	262100475	20191115 13051400 9.7	gren.png	20,20	-8,-8
-12.005572	-77.060310	262100475	20191115 13051700 9.7	gren.png	20,20	-8,-8
-12.005572	-77.060310	262100475	20191115 13051900 9.7	gren.png	20,20	-8,-8
-12.005572	-77.060310	262100475	20191115 13052200 9.7	gren.png	20,20	-8,-8
-12.005572	-77.060310	262100475	20191115 13052400 9.7	gren.png	20,20	-8,-8
-12.005572	-77.060310	262100475	20191115 13053200 9.7	gren.png	20,20	-8,-8
-12.005572	-77.060310	262100475	20191115 13053800 9.7	gren.png	20,20	-8,-8
-12.005572	-77.060310	262100475	20191115 13054000 9.7	gren.png	20,20	-8,-8
-12.007094	-77.056570	262100475	20191115 13054500 1.7	gren.png	20,20	-8,-8
-9.554913	-77.899594	256335282	20191115 13314200 55.9	gren.png	20,20	-8,-8
-9.552775	-77.613765	256335282	20191115 19274300 26.4	gren.png	20,20	-8,-8
-9.554401	-77.612780	256335282	20191115 19274300 23.7	gren.png	20,20	-8,-8
-9.560295	-77.595113	256335282	20191115 19375400 46.5	gren.png	20,20	-8,-8
-9.557721	-77.595005	256335282	20191115 19375400 53	gren.png	20,20	-8,-8
-12.126952	-77.037900	253729750	20191115 19384400 30.1	gren.png	20,20	-8,-8
-12.127923	-77.037146	253729750	20191115 19384400 27.9	gren.png	20,20	-8,-8
-9.551478	-77.586834	256335282	20191115 19413500 46.1	gren.png	20,20	-8,-8
-9.549617	-77.583116	256335282	20191115 19414200 44.4	gren.png	20,20	-8,-8
-4.859090	-80.772103	256391533	20191116 12571500 23.4	gren.png	20,20	-8,-8
-4.859303	-80.770931	256391533	20191116 12572300 16.5	gren.png	20,20	-8,-8
-11.906676	-76.535639	257380014	20191116 14240300 53.1	gren.png	20,20	-8,-8
-11.908715	-76.538106	257380014	20191116 14240700 50.5	gren.png	20,20	-8,-8
-3.880982	-80.839020	256391087	20191116 14493900 52.3	gren.png	20,20	-8,-8
-3.874915	-80.832079	256391087	20191116 14494000 122.9	gren.png	20,20	-8,-8
-10.315860	-78.046721	257616979	20191116 05475700 117.1	gren.png	20,20	-8,-8
-10.311342	-78.042296	257616979	20191116 05475700 108.6	gren.png	20,20	-8,-8
-7.254614	-78.483308	256428673	20191117 08275000 74.6	gren.png	20,20	-8,-8
-7.254709	-78.480933	256428673	20191117 08275100 34.5	gren.png	20,20	-8,-8
-7.256685	-78.482211	256428673	20191117 08275100 33.6	gren.png	20,20	-8,-8
-7.255581	-78.481774	256428673	20191117 08275100 51.5	gren.png	20,20	-8,-8
-7.257311	-78.481279	256428673	20191117 08300100 33.2	gren.png	20,20	-8,-8
-7.256129	-78.480058	256428673	20191117 08300200 63	gren.png	20,20	-8,-8
-7.255408	-78.478580	256428673	20191117 08300300 57.4	gren.png	20,20	-8,-8
-7.254705	-78.476999	256428673	20191117 08300300 35.4	gren.png	20,20	-8,-8
-7.249236	-78.468873	256428673	20191117 08301200 66.2	gren.png	20,20	-8,-8
-7.248576	-78.471330	256428673	20191117 08301200 71.3	gren.png	20,20	-8,-8
-7.247843	-78.467243	256428673	20191117 15174800 42.7	gren.png	20,20	-8,-8
-7.248172	-78.471221	256428673	20191117 15174900 75.1	gren.png	20,20	-8,-8
-7.263730	-78.511239	256428673	20191117 17134900 44	gren.png	20,20	-8,-8
-7.267098	-78.512500	256428673	20191117 17135100 71.4	gren.png	20,20	-8,-8
-7.716650	-77.652955	256398108	20191126 16022300 22.4	gren.png	20,20	-8,-8
-12.134420	-75.168702	257599043	20191130 15264100 35	gren.png	20,20	-8,-8
-12.133486	-75.169352	257599043	20191130 15264300 27.1	gren.png	20,20	-8,-8
-3.767520	-73.275926	001035441	20191204 16233700 0.2	gren.png	20,20	-8,-8
-3.767438	-73.275794	001035441	20191204 16234400 2.1	gren.png	20,20	-8,-8
-7.997032	-78.434497	256398108	20191211 13514300 87.7	gren.png	20,20	-8,-8
-7.995786	-78.438701	256398108	20191211 13515300 90.5	gren.png	20,20	-8,-8
-11.446816	-75.979475	257599043	20191214 08144000 32.9	gren.png	20,20	-8,-8
-11.447261	-75.978036	257599043	20191214 08144100 6.8	gren.png	20,20	-8,-8
-11.507939	-75.928948	257599043	20191215 14164700 37.6	gren.png	20,20	-8,-8
-11.510943	-75.928441	257599043	20191215 14164800 49.5	gren.png	20,20	-8,-8
-12.008737	-77.035954	256428889	20200102 14274400 3.3	gren.png	20,20	-8,-8
